{
  "project_info": {
    "project_number": "792587563432",
    "firebase_url": "https://chat-7ca02.firebaseio.com",
    "project_id": "chat-7ca02",
    "storage_bucket": "chat-7ca02.appspot.com"
  },
  "client": [
    {
      "client_info": {
        "mobilesdk_app_id": "1:792587563432:android:5d84a26a74c9ffed",
        "android_client_info": {
          "package_name": "com.epam.chat"
        }
      },
      "oauth_client": [
        {
          "client_id": "792587563432-dsqpmrrgq4lak505k8brc9cqkkk2cuan.apps.googleusercontent.com",
          "client_type": 1,
          "android_info": {
            "package_name": "com.epam.chat",
            "certificate_hash": "26b492351e6a10819d23a1245aac83ac74a23de7"
          }
        },
        {
          "client_id": "792587563432-kiatfoup54u25imfutg7bq0rub703v7f.apps.googleusercontent.com",
          "client_type": 1,
          "android_info": {
            "package_name": "com.epam.chat",
            "certificate_hash": "406070957503deecfeb9f0b32c45ec61411d234a"
          }
        },
        {
          "client_id": "792587563432-lbq489g1cf8epufi84i1cbk075hevp53.apps.googleusercontent.com",
          "client_type": 1,
          "android_info": {
            "package_name": "com.epam.chat",
            "certificate_hash": "c41b4a55a46d6d91f71ddb7241fcf97a4f6a1097"
          }
        },
        {
          "client_id": "792587563432-d8sf8m2gpttjrtdhp594q6jr7rckp1pk.apps.googleusercontent.com",
          "client_type": 1,
          "android_info": {
            "package_name": "com.epam.chat",
            "certificate_hash": "8f5463f2e712b1f43edb97dc5d5a37991a8bd8f2"
          }
        },
        {
          "client_id": "792587563432-3eadl68417qmhvsch08fjjooier83p3d.apps.googleusercontent.com",
          "client_type": 1,
          "android_info": {
            "package_name": "com.epam.chat",
            "certificate_hash": "c1be145b33dce1f5f0dba7a5fb15378660bd0a0c"
          }
        },
        {
          "client_id": "792587563432-6srkopecd4cl1suam0nu6g1qckvmn5mp.apps.googleusercontent.com",
          "client_type": 1,
          "android_info": {
            "package_name": "com.epam.chat",
            "certificate_hash": "61de0151de2ef9cb0b21fd8e77a37136e801aa0d"
          }
        },
        {
          "client_id": "792587563432-mjfrm919b9jam4u28dnoqv868bjao0ms.apps.googleusercontent.com",
          "client_type": 3
        }
      ],
      "api_key": [
        {
          "current_key": "AIzaSyAZ_SLTq3w_wzJOxBr1gwufXQvv7CqxPYk"
        }
      ],
      "services": {
        "appinvite_service": {
          "other_platform_oauth_client": [
            {
              "client_id": "792587563432-mjfrm919b9jam4u28dnoqv868bjao0ms.apps.googleusercontent.com",
              "client_type": 3
            }
          ]
        }
      }
    },
    {
      "client_info": {
        "mobilesdk_app_id": "1:792587563432:android:f969f04fdca842aa",
        "android_client_info": {
          "package_name": "com.epam.chatik"
        }
      },
      "oauth_client": [
        {
          "client_id": "792587563432-22e67q1ibr0396no7on8q4a3vvbb2psa.apps.googleusercontent.com",
          "client_type": 1,
          "android_info": {
            "package_name": "com.epam.chatik",
            "certificate_hash": "c41b4a55a46d6d91f71ddb7241fcf97a4f6a1097"
          }
        },
        {
          "client_id": "792587563432-mjfrm919b9jam4u28dnoqv868bjao0ms.apps.googleusercontent.com",
          "client_type": 3
        }
      ],
      "api_key": [
        {
          "current_key": "AIzaSyAZ_SLTq3w_wzJOxBr1gwufXQvv7CqxPYk"
        }
      ],
      "services": {
        "appinvite_service": {
          "other_platform_oauth_client": [
            {
              "client_id": "792587563432-mjfrm919b9jam4u28dnoqv868bjao0ms.apps.googleusercontent.com",
              "client_type": 3
            }
          ]
        }
      }
    },
    {
      "client_info": {
        "mobilesdk_app_id": "1:792587563432:android:ce2dd2ceab0459df",
        "android_client_info": {
          "package_name": "com.example.chatapp"
        }
      },
      "oauth_client": [
        {
          "client_id": "792587563432-bff1199i6h2qkanh60f32trlnc5huit4.apps.googleusercontent.com",
          "client_type": 1,
          "android_info": {
            "package_name": "com.example.chatapp",
            "certificate_hash": "406070957503deecfeb9f0b32c45ec61411d234a"
          }
        },
        {
          "client_id": "792587563432-mjfrm919b9jam4u28dnoqv868bjao0ms.apps.googleusercontent.com",
          "client_type": 3
        }
      ],
      "api_key": [
        {
          "current_key": "AIzaSyAZ_SLTq3w_wzJOxBr1gwufXQvv7CqxPYk"
        }
      ],
      "services": {
        "appinvite_service": {
          "other_platform_oauth_client": [
            {
              "client_id": "792587563432-mjfrm919b9jam4u28dnoqv868bjao0ms.apps.googleusercontent.com",
              "client_type": 3
            }
          ]
        }
      }
    },
    {
      "client_info": {
        "mobilesdk_app_id": "1:792587563432:android:398a84ac767d222d",
        "android_client_info": {
          "package_name": "com.toma.messenger"
        }
      },
      "oauth_client": [
        {
          "client_id": "792587563432-s6740c2i54h2r8rpu14oh1fgckkr2ioe.apps.googleusercontent.com",
          "client_type": 1,
          "android_info": {
            "package_name": "com.toma.messenger",
            "certificate_hash": "9a5df849e785d40f981f4bf35acfd6c82356816e"
          }
        },
        {
          "client_id": "792587563432-mjfrm919b9jam4u28dnoqv868bjao0ms.apps.googleusercontent.com",
          "client_type": 3
        }
      ],
      "api_key": [
        {
          "current_key": "AIzaSyAZ_SLTq3w_wzJOxBr1gwufXQvv7CqxPYk"
        }
      ],
      "services": {
        "appinvite_service": {
          "other_platform_oauth_client": [
            {
              "client_id": "792587563432-mjfrm919b9jam4u28dnoqv868bjao0ms.apps.googleusercontent.com",
              "client_type": 3
            }
          ]
        }
      }
    }
  ],
  "configuration_version": "1"
}